M1:DFA from Fig. 1.44
Rule 0: q --a--> q with output: 1
Rule 1: q --b--> q with output: 1
Rule 2: q2 --a--> q23 with output: 1
Rule 3: q2 --b--> q3 with output: 1
Rule 4: q3 --a--> q13 with output: 1
Rule 5: q3 --b--> q with output: 1
Rule 6: q13 --a--> q13 with output: 1
Rule 7: q13 --b--> q2 with output: 1
Rule 8: q23 --a--> q123 with output: 1
Rule 9: q23 --b--> q3 with output: 1
Rule 10: q123 --a--> q123 with output: 1
Rule 11: q123 --b--> q23 with output: 1

String: a
0,6,q13,a,q13,1
Accepted
Output String: 1

String: baa
0,7,q13,b,q2,1
1,2,q2,a,q23,1
2,8,q23,a,q123,1
Accepted
Output String: 111

String: baba
0,7,q13,b,q2,1
1,2,q2,a,q23,1
2,9,q23,b,q3,1
3,4,q3,a,q13,1
Accepted
Output String: 1111

String: ababa
0,6,q13,a,q13,1
1,7,q13,b,q2,1
2,2,q2,a,q23,1
3,9,q23,b,q3,1
4,4,q3,a,q13,1
Accepted
Output String: 11111

String: aaabbaaa
0,6,q13,a,q13,1
1,6,q13,a,q13,1
2,6,q13,a,q13,1
3,7,q13,b,q2,1
4,3,q2,b,q3,1
5,4,q3,a,q13,1
6,6,q13,a,q13,1
7,6,q13,a,q13,1
Accepted
Output String: 11111111

String: ababaaa
0,6,q13,a,q13,1
1,7,q13,b,q2,1
2,2,q2,a,q23,1
3,9,q23,b,q3,1
4,4,q3,a,q13,1
5,6,q13,a,q13,1
6,6,q13,a,q13,1
Accepted
Output String: 1111111

String: ababaabaabaaa
0,6,q13,a,q13,1
1,7,q13,b,q2,1
2,2,q2,a,q23,1
3,9,q23,b,q3,1
4,4,q3,a,q13,1
5,6,q13,a,q13,1
6,7,q13,b,q2,1
7,2,q2,a,q23,1
8,8,q23,a,q123,1
9,11,q123,b,q23,1
10,8,q23,a,q123,1
11,10,q123,a,q123,1
12,10,q123,a,q123,1
Accepted
Output String: 1111111111111
Number Accepted: 7
Number Rejected: 0
